{
  "version": "2.0",
  "app_name": "customers_worker",
  "lambda_timeout": 300,
  "stages": {
    "dev": {
      "api_gateway_stage": "api",
      "environment_variables": {
        "DATABASE_HOST": "",
        "DATABASE_USER": "",
        "DATABASE_PASS": "",
        "DATABASE_NAME": "",
        "ELASTIC": ""
      }
    }
  }
}
